example_name,src_name,src_url,loc_py,loc,loc_smv_system,loc_smv_int,n_subs,n_ops,n_calls,n_claims,n_py_annots,nfa,int_nfa_no_sink,int_dfa_min_no_sink,time_mean,time_margin_error,mem_mean,mem_margin_error
horizontal_system_ops_default,valve1,https://gitlab.com/safeiot/shelley-benchmarking/-/blob/paper-frankenstein/benchmarks/horizontal_system_ops_default/examples_auto/horizontal_system_ops_default/valve1.shy,0,2,0,0,0,1,0,0,,2,,,0.2145454545,0.0046190348,23709.8181818182,71.2838684027
horizontal_system_ops_default,valve11,https://gitlab.com/safeiot/shelley-benchmarking/-/blob/paper-frankenstein/benchmarks/horizontal_system_ops_default/examples_auto/horizontal_system_ops_default/valve11.shy,0,12,0,0,0,11,0,0,,12,,,0.2390909091,0.0063410708,23681.4545454545,88.0845873157
horizontal_system_ops_default,valve21,https://gitlab.com/safeiot/shelley-benchmarking/-/blob/paper-frankenstein/benchmarks/horizontal_system_ops_default/examples_auto/horizontal_system_ops_default/valve21.shy,0,22,0,0,0,21,0,0,,22,,,0.33545454550000003,0.0165553283,27414.1818181818,146.0204076541
horizontal_system_ops_default,valve31,https://gitlab.com/safeiot/shelley-benchmarking/-/blob/paper-frankenstein/benchmarks/horizontal_system_ops_default/examples_auto/horizontal_system_ops_default/valve31.shy,0,32,0,0,0,31,0,0,,32,,,0.5190909091,0.0047070244,34575.2727272727,93.9443312317
horizontal_system_ops_default,valve41,https://gitlab.com/safeiot/shelley-benchmarking/-/blob/paper-frankenstein/benchmarks/horizontal_system_ops_default/examples_auto/horizontal_system_ops_default/valve41.shy,0,42,0,0,0,41,0,0,,42,,,0.9781818182,0.0240012091,45194.1818181818,143.1435383195
horizontal_system_ops_default,valve51,https://gitlab.com/safeiot/shelley-benchmarking/-/blob/paper-frankenstein/benchmarks/horizontal_system_ops_default/examples_auto/horizontal_system_ops_default/valve51.shy,0,52,0,0,0,51,0,0,,52,,,1.6918181818,0.0107565777,54849.8181818182,76.1523550895
horizontal_system_ops_default,valve61,https://gitlab.com/safeiot/shelley-benchmarking/-/blob/paper-frankenstein/benchmarks/horizontal_system_ops_default/examples_auto/horizontal_system_ops_default/valve61.shy,0,62,0,0,0,61,0,0,,62,,,2.99,0.0298936196,68526.1818181818,323.041969085
horizontal_system_ops_default,valve71,https://gitlab.com/safeiot/shelley-benchmarking/-/blob/paper-frankenstein/benchmarks/horizontal_system_ops_default/examples_auto/horizontal_system_ops_default/valve71.shy,0,72,0,0,0,71,0,0,,72,,,5.0418181818,0.036155340200000004,83340.0,64.4376691367
horizontal_system_ops_default,valve81,https://gitlab.com/safeiot/shelley-benchmarking/-/blob/paper-frankenstein/benchmarks/horizontal_system_ops_default/examples_auto/horizontal_system_ops_default/valve81.shy,0,82,0,0,0,81,0,0,,82,,,8.4081818182,0.6061775105,105213.8181818182,97.7604964498
